new/wave.vcd
$date
	Mon May  9 12:02:35 2022
$end

$version
	Synopsys VCS version Q-2020.03-SP1-1
$end

$timescale
	1ns
$end

$comment Csum: 1 fc7deab35b6f5f2a $end


$scope module top $end
$var reg 1 ! clk $end

$scope module iface $end
$var reg 1 " clk $end
$var reg 2 # ctrl [1:0] $end
$var reg 2 $ WHO [1:0] $end
$var reg 1 % INIT $end
$var reg 1 & LOSER $end
$var reg 1 ' WINNER $end
$var reg 1 ( GAMEOVER $end
$var reg 1 ) rst_l $end
$var reg 4 * loadValue [3:0] $end
$upscope $end


$scope module G0 $end
$var reg 1 + LOSER $end
$var reg 1 , WINNER $end
$var reg 1 - GAMEOVER $end
$var reg 2 . WHO [1:0] $end
$var reg 2 / ctrl [1:0] $end
$var reg 4 0 m_counter [3:0] $end
$var reg 4 1 loser_count [3:0] $end
$var reg 4 2 win_count [3:0] $end
$var wire 4 3 loadValue [3:0] $end
$upscope $end

$upscope $end

$enddefinitions $end

#0
$dumpvars
1!
b0000 *
b00 $
b00 #
b0000 1
bxxxx 0
b0000 2
bzzzz 3
bxx /
bxx .
x-
x,
x+
0(
0%
0&
0'
1)
1"
$end
#1
0!
0"
#2
1!
1"
b0000 0
0)
1%
#3
0!
0"
#4
1!
1"
0%
#5
0!
0"
#6
1!
1"
b0001 1
b0001 0
1&
#7
0!
0"
#8
1!
1"
b0010 0
0&
#9
0!
0"
#10
1!
1"
b0011 0
#11
0!
0"
#12
1!
1"
b0100 0
#13
0!
0"
#14
1!
1"
b0101 0
#15
0!
0"
#16
1!
1"
b0110 0
#17
0!
0"
#18
1!
1"
b0111 0
#19
0!
0"
#20
1!
1"
b1000 0
#21
0!
0"
#22
1!
1"
b1001 0
#23
0!
0"
#24
1!
1"
b1010 0
#25
0!
0"
#26
1!
1"
b1011 0
#27
0!
0"
#28
1!
1"
b1100 0
#29
0!
0"
#30
1!
1"
b1101 0
#31
0!
0"
#32
1!
1"
b1110 0
#33
0!
0"
#34
1!
1"
b1111 0
#35
0!
0"
#36
1!
1"
b0001 2
b0000 0
1'
#37
0!
0"
#38
1!
1"
b0010 1
b0001 0
1&
0'
#39
0!
0"
#40
1!
1"
b0010 0
0&
#41
0!
0"
#42
1!
1"
b0011 0
#43
0!
0"
#44
1!
1"
b0100 0
#45
0!
0"
#46
1!
1"
b0101 0
#47
0!
0"
#48
1!
1"
b0110 0
#49
0!
0"
#50
1!
1"
b0111 0
#51
0!
0"
#52
1!
1"
b1000 0
#53
0!
0"
#54
1!
1"
b1001 0
#55
0!
0"
#56
1!
1"
b1010 0
#57
0!
0"
#58
1!
1"
b1011 0
#59
0!
0"
#60
1!
1"
b1100 0
#61
0!
0"
#62
1!
1"
b1101 0
#63
0!
0"
#64
1!
1"
b1110 0
#65
0!
0"
#66
1!
1"
b1111 0
#67
0!
0"
#68
1!
1"
b0010 2
b0000 0
1'
#69
0!
0"
#70
1!
1"
b0011 1
b0001 0
1&
0'
#71
0!
0"
#72
1!
1"
b0010 0
0&
#73
0!
0"
#74
1!
1"
b0011 0
#75
0!
0"
#76
1!
1"
b0100 0
#77
0!
0"
#78
1!
1"
b0101 0
#79
0!
0"
#80
1!
1"
b0110 0
#81
0!
0"
#82
1!
1"
b0111 0
#83
0!
0"
#84
1!
1"
b1000 0
#85
0!
0"
#86
1!
1"
b1001 0
#87
0!
0"
#88
1!
1"
b1010 0
#89
0!
0"
#90
1!
1"
b1011 0
#91
0!
0"
#92
1!
1"
b1100 0
#93
0!
0"
#94
1!
1"
b1101 0
#95
0!
0"
#96
1!
1"
b1110 0
#97
0!
0"
#98
1!
1"
b1111 0
#99
0!
0"
#100
1!
1"
b0011 2
b0000 0
1'
#101
0!
0"
#102
1!
1"
b0100 1
b0001 0
1&
0'
#103
0!
0"
#104
1!
1"
b0010 0
0&
#105
0!
0"
#106
1!
1"
b0011 0
#107
0!
0"
#108
1!
1"
b0100 0
#109
0!
0"
#110
1!
1"
b0101 0
#111
0!
0"
#112
1!
1"
b0110 0
#113
0!
0"
#114
1!
1"
b0111 0
#115
0!
0"
#116
1!
1"
b1000 0
#117
0!
0"
#118
1!
1"
b1001 0
#119
0!
0"
#120
1!
1"
b1010 0
#121
0!
0"
#122
1!
1"
b1011 0
#123
0!
0"
#124
1!
1"
b1100 0
#125
0!
0"
#126
1!
1"
b1101 0
#127
0!
0"
#128
1!
1"
b1110 0
#129
0!
0"
#130
1!
1"
b1111 0
#131
0!
0"
#132
1!
1"
b0100 2
b0000 0
1'
#133
0!
0"
#134
1!
1"
b0101 1
b0001 0
1&
0'
#135
0!
0"
#136
1!
1"
b0010 0
0&
#137
0!
0"
#138
1!
1"
b0011 0
#139
0!
0"
#140
1!
1"
b0100 0
#141
0!
0"
#142
1!
1"
b0101 0
#143
0!
0"
#144
1!
1"
b0110 0
#145
0!
0"
#146
1!
1"
b0111 0
#147
0!
0"
#148
1!
1"
b1000 0
#149
0!
0"
#150
1!
1"
b1001 0
#151
0!
0"
#152
1!
1"
b1010 0
#153
0!
0"
#154
1!
1"
b1011 0
#155
0!
0"
#156
1!
1"
b1100 0
#157
0!
0"
#158
1!
1"
b1101 0
#159
0!
0"
#160
1!
1"
b1110 0
#161
0!
0"
#162
1!
1"
b1111 0
#163
0!
0"
#164
1!
1"
b0101 2
b0000 0
1'
#165
0!
0"
#166
1!
1"
b0110 1
b0001 0
1&
0'
#167
0!
0"
#168
1!
1"
b0010 0
0&
#169
0!
0"
#170
1!
1"
b0011 0
#171
0!
0"
#172
1!
1"
b0100 0
#173
0!
0"
#174
1!
1"
b0101 0
#175
0!
0"
#176
1!
1"
b0110 0
#177
0!
0"
#178
1!
1"
b0111 0
#179
0!
0"
#180
1!
1"
b1000 0
#181
0!
0"
#182
1!
1"
b1001 0
#183
0!
0"
#184
1!
1"
b1010 0
#185
0!
0"
#186
1!
1"
b1011 0
#187
0!
0"
#188
1!
1"
b1100 0
#189
0!
0"
#190
1!
1"
b1101 0
#191
0!
0"
#192
1!
1"
b1110 0
#193
0!
0"
#194
1!
1"
b1111 0
#195
0!
0"
#196
1!
1"
b0110 2
b0000 0
1'
#197
0!
0"
#198
1!
1"
b0111 1
b0001 0
1&
0'
#199
0!
0"
#200
1!
1"
b0010 0
0&
#201
0!
0"
#202
1!
1"
b0011 0
#203
0!
0"
#204
1!
1"
b0100 0
#205
0!
0"
#206
1!
1"
b0101 0
#207
0!
0"
#208
1!
1"
b0110 0
#209
0!
0"
#210
1!
1"
b0111 0
#211
0!
0"
#212
1!
1"
b1000 0
#213
0!
0"
#214
1!
1"
b1001 0
#215
0!
0"
#216
1!
1"
b1010 0
#217
0!
0"
#218
1!
1"
b1011 0
#219
0!
0"
#220
1!
1"
b1100 0
#221
0!
0"
#222
1!
1"
b1101 0
#223
0!
0"
#224
1!
1"
b1110 0
#225
0!
0"
#226
1!
1"
b1111 0
#227
0!
0"
#228
1!
1"
b0111 2
b0000 0
1'
#229
0!
0"
#230
1!
1"
b1000 1
b0001 0
1&
0'
#231
0!
0"
#232
1!
1"
b0010 0
0&
#233
0!
0"
#234
1!
1"
b0011 0
#235
0!
0"
#236
1!
1"
b0100 0
#237
0!
0"
#238
1!
1"
b0101 0
#239
0!
0"
#240
1!
1"
b0110 0
#241
0!
0"
#242
1!
1"
b0111 0
#243
0!
0"
#244
1!
1"
b1000 0
#245
0!
0"
#246
1!
1"
b1001 0
#247
0!
0"
#248
1!
1"
b1010 0
#249
0!
0"
#250
1!
1"
b1011 0
#251
0!
0"
#252
1!
1"
b1100 0
#253
0!
0"
#254
1!
1"
b1101 0
#255
0!
0"
#256
1!
1"
b1110 0
#257
0!
0"
#258
1!
1"
b1111 0
#259
0!
0"
#260
1!
1"
b1000 2
b0000 0
1'
#261
0!
0"
#262
1!
1"
b1001 1
b0001 0
1&
0'
#263
0!
0"
#264
1!
1"
b0010 0
0&
#265
0!
0"
#266
1!
1"
b0011 0
#267
0!
0"
#268
1!
1"
b0100 0
#269
0!
0"
#270
1!
1"
b0101 0
#271
0!
0"
#272
1!
1"
b0110 0
#273
0!
0"
#274
1!
1"
b0111 0
#275
0!
0"
#276
1!
1"
b1000 0
#277
0!
0"
#278
1!
1"
b1001 0
#279
0!
0"
#280
1!
1"
b1010 0
#281
0!
0"
#282
1!
1"
b1011 0
#283
0!
0"
#284
1!
1"
b1100 0
#285
0!
0"
#286
1!
1"
b1101 0
#287
0!
0"
#288
1!
1"
b1110 0
#289
0!
0"
#290
1!
1"
b1111 0
#291
0!
0"
#292
1!
1"
b1001 2
b0000 0
1'
#293
0!
0"
#294
1!
1"
b1010 1
b0001 0
1&
0'
#295
0!
0"
#296
1!
1"
b0010 0
0&
#297
0!
0"
#298
1!
1"
b0011 0
#299
0!
0"
#300
1!
1"
b0100 0
#301
0!
0"
#302
1!
1"
b0101 0
#303
0!
0"
#304
1!
1"
b0110 0
#305
0!
0"
#306
1!
1"
b0111 0
#307
0!
0"
#308
1!
1"
b1000 0
#309
0!
0"
#310
1!
1"
b1001 0
#311
0!
0"
#312
1!
1"
b1010 0
#313
0!
0"
#314
1!
1"
b1011 0
#315
0!
0"
#316
1!
1"
b1100 0
#317
0!
0"
#318
1!
1"
b1101 0
#319
0!
0"
#320
1!
1"
b1110 0
#321
0!
0"
#322
1!
1"
b1111 0
#323
0!
0"
#324
1!
1"
b1010 2
b0000 0
1'
#325
0!
0"
#326
1!
1"
b1011 1
b0001 0
1&
0'
#327
0!
0"
#328
1!
1"
b0010 0
0&
#329
0!
0"
#330
1!
1"
b0011 0
#331
0!
0"
#332
1!
1"
b0100 0
#333
0!
0"
#334
1!
1"
b0101 0
#335
0!
0"
#336
1!
1"
b0110 0
#337
0!
0"
#338
1!
1"
b0111 0
#339
0!
0"
#340
1!
1"
b1000 0
#341
0!
0"
#342
1!
1"
b1001 0
#343
0!
0"
#344
1!
1"
b1010 0
#345
0!
0"
#346
1!
1"
b1011 0
#347
0!
0"
#348
1!
1"
b1100 0
#349
0!
0"
#350
1!
1"
b1101 0
#351
0!
0"
#352
1!
1"
b1110 0
#353
0!
0"
#354
1!
1"
b1111 0
#355
0!
0"
#356
1!
1"
b1011 2
b0000 0
1'
#357
0!
0"
#358
1!
1"
b1100 1
b0001 0
1&
0'
#359
0!
0"
#360
1!
1"
b0010 0
0&
#361
0!
0"
#362
1!
1"
b0011 0
#363
0!
0"
#364
1!
1"
b0100 0
#365
0!
0"
#366
1!
1"
b0101 0
#367
0!
0"
#368
1!
1"
b0110 0
#369
0!
0"
#370
1!
1"
b0111 0
#371
0!
0"
#372
1!
1"
b1000 0
#373
0!
0"
#374
1!
1"
b1001 0
#375
0!
0"
#376
1!
1"
b1010 0
#377
0!
0"
#378
1!
1"
b1011 0
#379
0!
0"
#380
1!
1"
b1100 0
#381
0!
0"
#382
1!
1"
b1101 0
#383
0!
0"
#384
1!
1"
b1110 0
#385
0!
0"
#386
1!
1"
b1111 0
#387
0!
0"
#388
1!
1"
b1100 2
b0000 0
1'
#389
0!
0"
#390
1!
1"
b1101 1
b0001 0
1&
0'
#391
0!
0"
#392
1!
1"
b0010 0
0&
#393
0!
0"
#394
1!
1"
b0011 0
#395
0!
0"
#396
1!
1"
b0100 0
#397
0!
0"
#398
1!
1"
b0101 0
#399
0!
0"
#400
1!
1"
b0110 0
#401
0!
0"
#402
1!
1"
b0111 0
#403
0!
0"
#404
1!
1"
b1000 0
#405
0!
0"
#406
1!
1"
b1001 0
#407
0!
0"
#408
1!
1"
b1010 0
#409
0!
0"
#410
1!
1"
b1011 0
#411
0!
0"
#412
1!
1"
b1100 0
#413
0!
0"
#414
1!
1"
b1101 0
#415
0!
0"
#416
1!
1"
b1110 0
#417
0!
0"
#418
1!
1"
b1111 0
#419
0!
0"
#420
1!
1"
b1101 2
b0000 0
1'
#421
0!
0"
#422
1!
1"
b1110 1
b0001 0
1&
0'
#423
0!
0"
#424
1!
1"
b0010 0
0&
#425
0!
0"
#426
1!
1"
b0011 0
#427
0!
0"
#428
1!
1"
b0100 0
#429
0!
0"
#430
1!
1"
b0101 0
#431
0!
0"
#432
1!
1"
b0110 0
#433
0!
0"
#434
1!
1"
b0111 0
#435
0!
0"
#436
1!
1"
b1000 0
#437
0!
0"
#438
1!
1"
b1001 0
#439
0!
0"
#440
1!
1"
b1010 0
#441
0!
0"
#442
1!
1"
b1011 0
#443
0!
0"
#444
1!
1"
b1100 0
#445
0!
0"
#446
1!
1"
b1101 0
#447
0!
0"
#448
1!
1"
b1110 0
#449
0!
0"
#450
1!
1"
b1111 0
#451
0!
0"
#452
1!
1"
b1110 2
b0000 0
1'
#453
0!
0"
#454
1!
1"
b1111 1
b0001 0
1&
0'
1(
b01 $
#455
0!
0"
#456
1!
1"
b0000 0
b0000 1
b0000 2
b00 $
0&
0(
#457
0!
0"
#458
1!
1"
b0001 1
b0001 0
1&
#459
0!
0"
#460
1!
1"
b0010 0
0&
#461
0!
0"
#462
1!
1"
b0011 0
#463
0!
0"
#464
1!
1"
b0100 0
#465
0!
0"
#466
1!
1"
b0101 0
#467
0!
0"
#468
1!
1"
b0110 0
#469
0!
0"
#470
1!
1"
b0111 0
#471
0!
0"
#472
1!
1"
b1000 0
#473
0!
0"
#474
1!
1"
b1001 0
#475
0!
0"
#476
1!
1"
b1010 0
#477
0!
0"
#478
1!
1"
b1011 0
#479
0!
0"
#480
1!
1"
b1100 0
#481
0!
0"
#482
1!
1"
b1101 0
#483
0!
0"
#484
1!
1"
b1110 0
#485
0!
0"
#486
1!
1"
b1111 0
1)
b0001 *
0)
1%
#487
0!
0"
#488
1!
1"
b0001 0
b0000 1
#489
0!
0"
#490
1!
1"
0%
#491
0!
0"
#492
1!
1"
b0010 0
#493
0!
0"
#494
1!
1"
b0011 0
#495
0!
0"
#496
1!
1"
b0100 0
#497
0!
0"
#498
1!
1"
b0101 0
#499
0!
0"
#500
1!
1"
b0110 0
#501
0!
0"
#502
1!
1"
b0111 0
#503
0!
0"
#504
1!
1"
b1000 0
#505
0!
0"
#506
1!
1"
b1001 0
#507
0!
0"
#508
1!
1"
b1010 0
#509
0!
0"
#510
1!
1"
b1011 0
#511
0!
0"
#512
1!
1"
b1100 0
#513
0!
0"
#514
1!
1"
b1101 0
#515
0!
0"
#516
1!
1"
b1110 0
#517
0!
0"
#518
1!
1"
b1111 0
#519
0!
0"
#520
1!
1"
b0001 2
b0000 0
1'
#521
0!
0"
#522
1!
1"
b0001 1
b0001 0
1&
0'
#523
0!
0"
#524
1!
1"
b0010 0
0&
#525
0!
0"
#526
1!
1"
b0011 0
#527
0!
0"
#528
1!
1"
b0100 0
#529
0!
0"
#530
1!
1"
b0101 0
#531
0!
0"
#532
1!
1"
b0110 0
#533
0!
0"
#534
1!
1"
b0111 0
#535
0!
0"
#536
1!
1"
b1000 0
#537
0!
0"
#538
1!
1"
b1001 0
#539
0!
0"
#540
1!
1"
b1010 0
#541
0!
0"
#542
1!
1"
b1011 0
#543
0!
0"
#544
1!
1"
b1100 0
#545
0!
0"
#546
1!
1"
b1101 0
#547
0!
0"
#548
1!
1"
b1110 0
#549
0!
0"
#550
1!
1"
b1111 0
#551
0!
0"
#552
1!
1"
b0010 2
b0000 0
1'
#553
0!
0"
#554
1!
1"
b0010 1
b0001 0
1&
0'
#555
0!
0"
#556
1!
1"
b0010 0
0&
#557
0!
0"
#558
1!
1"
b0011 0
#559
0!
0"
#560
1!
1"
b0100 0
#561
0!
0"
#562
1!
1"
b0101 0
#563
0!
0"
#564
1!
1"
b0110 0
#565
0!
0"
#566
1!
1"
b0111 0
#567
0!
0"
#568
1!
1"
b1000 0
#569
0!
0"
#570
1!
1"
b1001 0
#571
0!
0"
#572
1!
1"
b1010 0
#573
0!
0"
#574
1!
1"
b1011 0
#575
0!
0"
#576
1!
1"
b1100 0
#577
0!
0"
#578
1!
1"
b1101 0
#579
0!
0"
#580
1!
1"
b1110 0
#581
0!
0"
#582
1!
1"
b1111 0
#583
0!
0"
#584
1!
1"
b0011 2
b0000 0
1'
#585
0!
0"
#586
1!
1"
b0011 1
b0001 0
1&
0'
#587
0!
0"
#588
1!
1"
b0010 0
0&
#589
0!
0"
#590
1!
1"
b0011 0
#591
0!
0"
#592
1!
1"
b0100 0
#593
0!
0"
#594
1!
1"
b0101 0
#595
0!
0"
#596
1!
1"
b0110 0
#597
0!
0"
#598
1!
1"
b0111 0
#599
0!
0"
#600
1!
1"
b1000 0
#601
0!
0"
#602
1!
1"
b1001 0
#603
0!
0"
#604
1!
1"
b1010 0
#605
0!
0"
#606
1!
1"
b1011 0
#607
0!
0"
#608
1!
1"
b1100 0
#609
0!
0"
#610
1!
1"
b1101 0
#611
0!
0"
#612
1!
1"
b1110 0
#613
0!
0"
#614
1!
1"
b1111 0
#615
0!
0"
#616
1!
1"
b0100 2
b0000 0
1'
#617
0!
0"
#618
1!
1"
b0100 1
b0001 0
1&
0'
#619
0!
0"
#620
1!
1"
b0010 0
0&
#621
0!
0"
#622
1!
1"
b0011 0
#623
0!
0"
#624
1!
1"
b0100 0
#625
0!
0"
#626
1!
1"
b0101 0
#627
0!
0"
#628
1!
1"
b0110 0
#629
0!
0"
#630
1!
1"
b0111 0
#631
0!
0"
#632
1!
1"
b1000 0
#633
0!
0"
#634
1!
1"
b1001 0
#635
0!
0"
#636
1!
1"
b1010 0
#637
0!
0"
#638
1!
1"
b1011 0
#639
0!
0"
#640
1!
1"
b1100 0
#641
0!
0"
#642
1!
1"
b1101 0
#643
0!
0"
#644
1!
1"
b1110 0
#645
0!
0"
#646
1!
1"
b1111 0
#647
0!
0"
#648
1!
1"
b0101 2
b0000 0
1'
#649
0!
0"
#650
1!
1"
b0101 1
b0001 0
1&
0'
#651
0!
0"
#652
1!
1"
b0010 0
0&
#653
0!
0"
#654
1!
1"
b0011 0
#655
0!
0"
#656
1!
1"
b0100 0
#657
0!
0"
#658
1!
1"
b0101 0
#659
0!
0"
#660
1!
1"
b0110 0
#661
0!
0"
#662
1!
1"
b0111 0
#663
0!
0"
#664
1!
1"
b1000 0
#665
0!
0"
#666
1!
1"
b1001 0
#667
0!
0"
#668
1!
1"
b1010 0
#669
0!
0"
#670
1!
1"
b1011 0
#671
0!
0"
#672
1!
1"
b1100 0
#673
0!
0"
#674
1!
1"
b1101 0
#675
0!
0"
#676
1!
1"
b1110 0
#677
0!
0"
#678
1!
1"
b1111 0
#679
0!
0"
#680
1!
1"
b0110 2
b0000 0
1'
#681
0!
0"
#682
1!
1"
b0110 1
b0001 0
1&
0'
#683
0!
0"
#684
1!
1"
b0010 0
0&
#685
0!
0"
#686
1!
1"
b0011 0
#687
0!
0"
#688
1!
1"
b0100 0
#689
0!
0"
#690
1!
1"
b0101 0
#691
0!
0"
#692
1!
1"
b0110 0
#693
0!
0"
#694
1!
1"
b0111 0
#695
0!
0"
#696
1!
1"
b1000 0
#697
0!
0"
#698
1!
1"
b1001 0
#699
0!
0"
#700
1!
1"
b1010 0
#701
0!
0"
#702
1!
1"
b1011 0
#703
0!
0"
#704
1!
1"
b1100 0
#705
0!
0"
#706
1!
1"
b1101 0
#707
0!
0"
#708
1!
1"
b1110 0
#709
0!
0"
#710
1!
1"
b1111 0
#711
0!
0"
#712
1!
1"
b0111 2
b0000 0
1'
#713
0!
0"
#714
1!
1"
b0111 1
b0001 0
1&
0'
#715
0!
0"
#716
1!
1"
b0010 0
0&
#717
0!
0"
#718
1!
1"
b0011 0
#719
0!
0"
#720
1!
1"
b0100 0
#721
0!
0"
#722
1!
1"
b0101 0
#723
0!
0"
#724
1!
1"
b0110 0
#725
0!
0"
#726
1!
1"
b0111 0
#727
0!
0"
#728
1!
1"
b1000 0
#729
0!
0"
#730
1!
1"
b1001 0
#731
0!
0"
#732
1!
1"
b1010 0
#733
0!
0"
#734
1!
1"
b1011 0
#735
0!
0"
#736
1!
1"
b1100 0
#737
0!
0"
#738
1!
1"
b1101 0
#739
0!
0"
#740
1!
1"
b1110 0
#741
0!
0"
#742
1!
1"
b1111 0
#743
0!
0"
#744
1!
1"
b1000 2
b0000 0
1'
#745
0!
0"
#746
1!
1"
b1000 1
b0001 0
1&
0'
#747
0!
0"
#748
1!
1"
b0010 0
0&
#749
0!
0"
#750
1!
1"
b0011 0
#751
0!
0"
#752
1!
1"
b0100 0
#753
0!
0"
#754
1!
1"
b0101 0
#755
0!
0"
#756
1!
1"
b0110 0
#757
0!
0"
#758
1!
1"
b0111 0
#759
0!
0"
#760
1!
1"
b1000 0
#761
0!
0"
#762
1!
1"
b1001 0
#763
0!
0"
#764
1!
1"
b1010 0
#765
0!
0"
#766
1!
1"
b1011 0
#767
0!
0"
#768
1!
1"
b1100 0
#769
0!
0"
#770
1!
1"
b1101 0
#771
0!
0"
#772
1!
1"
b1110 0
#773
0!
0"
#774
1!
1"
b1111 0
#775
0!
0"
#776
1!
1"
b1001 2
b0000 0
1'
#777
0!
0"
#778
1!
1"
b1001 1
b0001 0
1&
0'
#779
0!
0"
#780
1!
1"
b0010 0
0&
#781
0!
0"
#782
1!
1"
b0011 0
#783
0!
0"
#784
1!
1"
b0100 0
#785
0!
0"
#786
1!
1"
b0101 0
#787
0!
0"
#788
1!
1"
b0110 0
#789
0!
0"
#790
1!
1"
b0111 0
#791
0!
0"
#792
1!
1"
b1000 0
#793
0!
0"
#794
1!
1"
b1001 0
#795
0!
0"
#796
1!
1"
b1010 0
#797
0!
0"
#798
1!
1"
b1011 0
#799
0!
0"
#800
1!
1"
b1100 0
#801
0!
0"
#802
1!
1"
b1101 0
#803
0!
0"
#804
1!
1"
b1110 0
#805
0!
0"
#806
1!
1"
b1111 0
#807
0!
0"
#808
1!
1"
b1010 2
b0000 0
1'
#809
0!
0"
#810
1!
1"
b1010 1
b0001 0
1&
0'
#811
0!
0"
#812
1!
1"
b0010 0
0&
#813
0!
0"
#814
1!
1"
b0011 0
#815
0!
0"
#816
1!
1"
b0100 0
#817
0!
0"
#818
1!
1"
b0101 0
#819
0!
0"
#820
1!
1"
b0110 0
#821
0!
0"
#822
1!
1"
b0111 0
#823
0!
0"
#824
1!
1"
b1000 0
#825
0!
0"
#826
1!
1"
b1001 0
#827
0!
0"
#828
1!
1"
b1010 0
#829
0!
0"
#830
1!
1"
b1011 0
#831
0!
0"
#832
1!
1"
b1100 0
#833
0!
0"
#834
1!
1"
b1101 0
#835
0!
0"
#836
1!
1"
b1110 0
#837
0!
0"
#838
1!
1"
b1111 0
#839
0!
0"
#840
1!
1"
b1011 2
b0000 0
1'
#841
0!
0"
#842
1!
1"
b1011 1
b0001 0
1&
0'
#843
0!
0"
#844
1!
1"
b0010 0
0&
#845
0!
0"
#846
1!
1"
b0011 0
#847
0!
0"
#848
1!
1"
b0100 0
#849
0!
0"
#850
1!
1"
b0101 0
#851
0!
0"
#852
1!
1"
b0110 0
#853
0!
0"
#854
1!
1"
b0111 0
#855
0!
0"
#856
1!
1"
b1000 0
#857
0!
0"
#858
1!
1"
b1001 0
#859
0!
0"
#860
1!
1"
b1010 0
#861
0!
0"
#862
1!
1"
b1011 0
#863
0!
0"
#864
1!
1"
b1100 0
#865
0!
0"
#866
1!
1"
b1101 0
#867
0!
0"
#868
1!
1"
b1110 0
#869
0!
0"
#870
1!
1"
b1111 0
#871
0!
0"
#872
1!
1"
b1100 2
b0000 0
1'
#873
0!
0"
#874
1!
1"
b1100 1
b0001 0
1&
0'
#875
0!
0"
#876
1!
1"
b0010 0
0&
#877
0!
0"
#878
1!
1"
b0011 0
#879
0!
0"
#880
1!
1"
b0100 0
#881
0!
0"
#882
1!
1"
b0101 0
#883
0!
0"
#884
1!
1"
b0110 0
#885
0!
0"
#886
1!
1"
b0111 0
#887
0!
0"
#888
1!
1"
b1000 0
#889
0!
0"
#890
1!
1"
b1001 0
#891
0!
0"
#892
1!
1"
b1010 0
#893
0!
0"
#894
1!
1"
b1011 0
#895
0!
0"
#896
1!
1"
b1100 0
#897
0!
0"
#898
1!
1"
b1101 0
#899
0!
0"
#900
1!
1"
b1110 0
#901
0!
0"
#902
1!
1"
b1111 0
#903
0!
0"
#904
1!
1"
b1101 2
b0000 0
1'
#905
0!
0"
#906
1!
1"
b1101 1
b0001 0
1&
0'
#907
0!
0"
#908
1!
1"
b0010 0
0&
#909
0!
0"
#910
1!
1"
b0011 0
#911
0!
0"
#912
1!
1"
b0100 0
#913
0!
0"
#914
1!
1"
b0101 0
#915
0!
0"
#916
1!
1"
b0110 0
#917
0!
0"
#918
1!
1"
b0111 0
#919
0!
0"
#920
1!
1"
b1000 0
#921
0!
0"
#922
1!
1"
b1001 0
#923
0!
0"
#924
1!
1"
b1010 0
#925
0!
0"
#926
1!
1"
b1011 0
#927
0!
0"
#928
1!
1"
b1100 0
#929
0!
0"
#930
1!
1"
b1101 0
#931
0!
0"
#932
1!
1"
b1110 0
#933
0!
0"
#934
1!
1"
b1111 0
#935
0!
0"
#936
1!
1"
b1110 2
b0000 0
1'
#937
0!
0"
#938
1!
1"
b1110 1
b0001 0
1&
0'
#939
0!
0"
#940
1!
1"
b0010 0
0&
#941
0!
0"
#942
1!
1"
b0011 0
#943
0!
0"
#944
1!
1"
b0100 0
#945
0!
0"
#946
1!
1"
b0101 0
#947
0!
0"
#948
1!
1"
b0110 0
#949
0!
0"
#950
1!
1"
b0111 0
#951
0!
0"
#952
1!
1"
b1000 0
#953
0!
0"
#954
1!
1"
b1001 0
#955
0!
0"
#956
1!
1"
b1010 0
#957
0!
0"
#958
1!
1"
b1011 0
#959
0!
0"
#960
1!
1"
b1100 0
#961
0!
0"
#962
1!
1"
b1101 0
#963
0!
0"
#964
1!
1"
b1110 0
#965
0!
0"
#966
1!
1"
b1111 0
#967
0!
0"
#968
1!
1"
b1111 2
b0000 0
1'
1(
b10 $
#969
0!
0"
#970
1!
1"
b0000 1
b0000 2
b00 $
0'
0(
1)
b1111 *
#971
0!
0"
#972
1!
1"
0)
1%
#973
0!
0"
#974
1!
1"
b1111 0
0%
#975
0!
0"
#976
1!
1"
b0001 2
b0000 0
1'
#977
0!
0"
#978
1!
1"
b0001 1
b0001 0
1&
0'
#979
0!
0"
#980
1!
1"
b0010 0
0&
#981
0!
0"
#982
1!
1"
b0011 0
#983
0!
0"
#984
1!
1"
b0100 0
#985
0!
0"
#986
1!
1"
b0101 0
#987
0!
0"
#988
1!
1"
b0110 0
#989
0!
0"
#990
1!
1"
b0111 0
#991
0!
0"
#992
1!
1"
b1000 0
#993
0!
0"
#994
1!
1"
b1001 0
#995
0!
0"
#996
1!
1"
b1010 0
#997
0!
0"
#998
1!
1"
b1011 0
#999
0!
0"
#1000
1!
1"
b1100 0
#1001
0!
0"
#1002
1!
1"
b1101 0
#1003
0!
0"
#1004
1!
1"
b1110 0
#1005
0!
0"
#1006
1!
1"
b1111 0
#1007
0!
0"
#1008
1!
1"
b0010 2
b0000 0
1'
#1009
0!
0"
#1010
1!
1"
b0010 1
b0001 0
1&
0'
#1011
0!
0"
#1012
1!
1"
b0010 0
0&
#1013
0!
0"
#1014
1!
1"
b0011 0
#1015
0!
0"
#1016
1!
1"
b0100 0
#1017
0!
0"
#1018
1!
1"
b0101 0
#1019
0!
0"
#1020
1!
1"
b0110 0
#1021
0!
0"
#1022
1!
1"
b0111 0
#1023
0!
0"
#1024
1!
1"
b1000 0
#1025
0!
0"
#1026
1!
1"
b1001 0
#1027
0!
0"
#1028
1!
1"
b1010 0
#1029
0!
0"
#1030
1!
1"
b1011 0
#1031
0!
0"
#1032
1!
1"
b1100 0
#1033
0!
0"
#1034
1!
1"
b1101 0
#1035
0!
0"
#1036
1!
1"
b1110 0
#1037
0!
0"
#1038
1!
1"
b1111 0
#1039
0!
0"
#1040
1!
1"
b0011 2
b0000 0
1'
#1041
0!
0"
#1042
1!
1"
b0011 1
b0001 0
1&
0'
#1043
0!
0"
#1044
1!
1"
b0010 0
0&
#1045
0!
0"
#1046
1!
1"
b0011 0
#1047
0!
0"
#1048
1!
1"
b0100 0
#1049
0!
0"
#1050
1!
1"
b0101 0
#1051
0!
0"
#1052
1!
1"
b0110 0
#1053
0!
0"
#1054
1!
1"
b0111 0
#1055
0!
0"
#1056
1!
1"
b1000 0
#1057
0!
0"
#1058
1!
1"
b1001 0
#1059
0!
0"
#1060
1!
1"
b1010 0
#1061
0!
0"
#1062
1!
1"
b1011 0
#1063
0!
0"
#1064
1!
1"
b1100 0
#1065
0!
0"
#1066
1!
1"
b1101 0
#1067
0!
0"
#1068
1!
1"
b1110 0
#1069
0!
0"
#1070
1!
1"
b1111 0
#1071
0!
0"
#1072
1!
1"
b0100 2
b0000 0
1'
#1073
0!
0"
#1074
1!
1"
b0100 1
b0001 0
1&
0'
#1075
0!
0"
#1076
1!
1"
b0010 0
0&
#1077
0!
0"
#1078
1!
1"
b0011 0
#1079
0!
0"
#1080
1!
1"
b0100 0
#1081
0!
0"
#1082
1!
1"
b0101 0
#1083
0!
0"
#1084
1!
1"
b0110 0
#1085
0!
0"
#1086
1!
1"
b0111 0
#1087
0!
0"
#1088
1!
1"
b1000 0
#1089
0!
0"
#1090
1!
1"
b1001 0
#1091
0!
0"
#1092
1!
1"
b1010 0
#1093
0!
0"
#1094
1!
1"
b1011 0
#1095
0!
0"
#1096
1!
1"
b1100 0
#1097
0!
0"
#1098
1!
1"
b1101 0
#1099
0!
0"
#1100
1!
1"
b1110 0
#1101
0!
0"
#1102
1!
1"
b1111 0
#1103
0!
0"
#1104
1!
1"
b0101 2
b0000 0
1'
#1105
0!
0"
#1106
1!
1"
b0101 1
b0001 0
1&
0'
#1107
0!
0"
#1108
1!
1"
b0010 0
0&
#1109
0!
0"
#1110
1!
1"
b0011 0
#1111
0!
0"
#1112
1!
1"
b0100 0
#1113
0!
0"
#1114
1!
1"
b0101 0
#1115
0!
0"
